%YAML 1.1
%TAG !u! tag:unity3d.com,2011:
--- !u!1 &129934
GameObject:
  m_ObjectHideFlags: 0
  m_CorrespondingSourceObject: {fileID: 0}
  m_PrefabInternal: {fileID: 100100000}
  serializedVersion: 6
  m_Component:
  - component: {fileID: 449174}
  - component: {fileID: 3374410}
  - component: {fileID: 2368002}
  - component: {fileID: 6415804}
  - component: {fileID: 114308012934340750}
  - component: {fileID: 114039754978875676}
  m_Layer: 0
  m_Name: building_3
  m_TagString: Untagged
  m_Icon: {fileID: 0}
  m_NavMeshLayer: 0
  m_StaticEditorFlags: 0
  m_IsActive: 1
--- !u!4 &449174
Transform:
  m_ObjectHideFlags: 1
  m_CorrespondingSourceObject: {fileID: 0}
  m_PrefabInternal: {fileID: 100100000}
  m_GameObject: {fileID: 129934}
  m_LocalRotation: {x: 0, y: 0, z: 0, w: 1}
  m_LocalPosition: {x: 0, y: 0, z: 0}
  m_LocalScale: {x: 1, y: 1, z: 1}
  m_Children: []
  m_Father: {fileID: 0}
  m_RootOrder: 0
  m_LocalEulerAnglesHint: {x: 0, y: 0, z: 0}
--- !u!23 &2368002
MeshRenderer:
  m_ObjectHideFlags: 1
  m_CorrespondingSourceObject: {fileID: 0}
  m_PrefabInternal: {fileID: 100100000}
  m_GameObject: {fileID: 129934}
  m_Enabled: 1
  m_CastShadows: 0
  m_ReceiveShadows: 1
  m_DynamicOccludee: 1
  m_MotionVectors: 1
  m_LightProbeUsage: 1
  m_ReflectionProbeUsage: 1
  m_RenderingLayerMask: 4294967295
  m_Materials:
  - {fileID: 2100000, guid: 52754914e1100a2498c45475e5a2d5a5, type: 2}
  - {fileID: 2100000, guid: 69bb725cfe9ae0446bfddd8e8cd284b8, type: 2}
  - {fileID: 2100000, guid: ecf0c8c920ea9b24dac7bc5e61487e27, type: 2}
  - {fileID: 2100000, guid: 30436fe73486f444ea88cbb375db3166, type: 2}
  - {fileID: 2100000, guid: e908aeb0f05c23f48accd8859e576f16, type: 2}
  - {fileID: 2100000, guid: 3b408168ff3217946a796b6d1e18f30e, type: 2}
  - {fileID: 2100000, guid: 550d7603b14e9b749b0b3d786dc492e6, type: 2}
  - {fileID: 2100000, guid: 78b26b46ef59bfe4b8aa68e435d2491e, type: 2}
  - {fileID: 2100000, guid: 20b762aa30771474f8dc6c459af9c136, type: 2}
  - {fileID: 2100000, guid: afb73dc68e4523f4d81dabd14bbd18e0, type: 2}
  - {fileID: 2100000, guid: f61f53c7eb6b61e4db7831a737704642, type: 2}
  - {fileID: 2100000, guid: ad194165a3b338446a4039cb63cce58e, type: 2}
  - {fileID: 2100000, guid: f57d9d1e47b63504b81f94de0ec425c9, type: 2}
  - {fileID: 2100000, guid: 2057438fc521e1d47aa1059b39f1734e, type: 2}
  - {fileID: 2100000, guid: 1f54772f94881884a99d4dccaf88049f, type: 2}
  m_StaticBatchInfo:
    firstSubMesh: 0
    subMeshCount: 0
  m_StaticBatchRoot: {fileID: 0}
  m_ProbeAnchor: {fileID: 0}
  m_LightProbeVolumeOverride: {fileID: 0}
  m_ScaleInLightmap: 1
  m_PreserveUVs: 0
  m_IgnoreNormalsForChartDetection: 0
  m_ImportantGI: 0
  m_StitchLightmapSeams: 0
  m_SelectedEditorRenderState: 3
  m_MinimumChartSize: 4
  m_AutoUVMaxDistance: 0.5
  m_AutoUVMaxAngle: 89
  m_LightmapParameters: {fileID: 0}
  m_SortingLayerID: 0
  m_SortingLayer: 0
  m_SortingOrder: 0
--- !u!33 &3374410
MeshFilter:
  m_ObjectHideFlags: 1
  m_CorrespondingSourceObject: {fileID: 0}
  m_PrefabInternal: {fileID: 100100000}
  m_GameObject: {fileID: 129934}
  m_Mesh: {fileID: 4300000, guid: 37026fea9c0f20048bea5700b6d4b897, type: 3}
--- !u!64 &6415804
MeshCollider:
  m_ObjectHideFlags: 1
  m_CorrespondingSourceObject: {fileID: 0}
  m_PrefabInternal: {fileID: 100100000}
  m_GameObject: {fileID: 129934}
  m_Material: {fileID: 0}
  m_IsTrigger: 0
  m_Enabled: 1
  serializedVersion: 3
  m_Convex: 0
  m_CookingOptions: 14
  m_SkinWidth: 0.01
  m_Mesh: {fileID: 4300000, guid: 37026fea9c0f20048bea5700b6d4b897, type: 3}
--- !u!1001 &100100000
Prefab:
  m_ObjectHideFlags: 1
  serializedVersion: 2
  m_Modification:
    m_TransformParent: {fileID: 0}
    m_Modifications: []
    m_RemovedComponents: []
  m_SourcePrefab: {fileID: 0}
  m_RootGameObject: {fileID: 129934}
  m_IsPrefabAsset: 1
--- !u!114 &114039754978875676
MonoBehaviour:
  m_ObjectHideFlags: 1
  m_CorrespondingSourceObject: {fileID: 0}
  m_PrefabInternal: {fileID: 100100000}
  m_GameObject: {fileID: 129934}
  m_Enabled: 1
  m_EditorHideFlags: 0
  m_Script: {fileID: 11500000, guid: 75149dbc7ee3e9c4486d0ce625311245, type: 3}
  m_Name: 
  m_EditorClassIdentifier: 
  moveVector: {x: 0, y: 0, z: -1}
  speed: 0.175
  maxLifeTime: 8
--- !u!114 &114308012934340750
MonoBehaviour:
  m_ObjectHideFlags: 1
  m_CorrespondingSourceObject: {fileID: 0}
  m_PrefabInternal: {fileID: 100100000}
  m_GameObject: {fileID: 129934}
  m_Enabled: 0
  m_EditorHideFlags: 0
  m_Script: {fileID: 11500000, guid: c5aced8575f464744affdf561324e9fe, type: 3}
  m_Name: 
  m_EditorClassIdentifier: 
  moveVector: {x: 0, y: 0, z: -1}
  speed: 0.175
  timeToDestroy: 8
