%YAML 1.1
%TAG !u! tag:unity3d.com,2011:
--- !u!1045 &1
EditorBuildSettings:
  m_ObjectHideFlags: 0
  serializedVersion: 2
  m_Scenes:
  - enabled: 1
    path: Assets/Scene/Main.unity
    guid: da6ad301b9e0b8646a25f7490054e924
  - enabled: 1
    path: Assets/Scene/Game Over.unity
    guid: d9b017ad368f7fb46b0fa4f262242489
